module ldap-access-parser

go 1.19

require (
	github.com/fsnotify/fsnotify v1.7.0
	github.com/hpcloud/tail v1.0.0
	gopkg.in/tomb.v1 v1.0.0-20141024135613-dd632973f1e7
)

require golang.org/x/sys v0.4.0 // indirect
